[{"id":80315,"condition1":"Condition","condition2":"Control","analyses":[{"type":"PATHWAY_ANALYSIS","data":{"content":[{"name":"Viral myocarditis","pValue":1.68226824823764E-4},{"name":"Tight junction","pValue":5.03725400911326E-4},{"name":"Regulation of actin cytoskeleton","pValue":5.80354029643365E-4},{"name":"Epstein-Barr virus infection","pValue":5.91938809046923E-4},{"name":"Oxytocin signaling pathway","pValue":7.46035864332289E-4}],"metadata":{"pageInfo":{"size":5,"totalElements":62,"totalPages":13,"currentPage":0},"orderInfo":{"orderBy":"pValue","orderType":"ASC"}}}},{"type":"GO_ANALYSIS","ontology":"MF","pruning":"elim","data":{"content":[{"name":"calcium-dependent protein binding","pValue":2.565E-4},{"name":"calcium ion binding","pValue":0.002907},{"name":"structural constituent of postsynaptic actin cytoskeleton","pValue":0.00684},{"name":"cadherin binding involved in cell-cell adhesion","pValue":0.0491625},{"name":"TAP binding","pValue":0.058482}],"metadata":{"pageInfo":{"size":5,"totalElements":171,"totalPages":35,"currentPage":0},"orderInfo":{"orderBy":"pValue","orderType":"ASC"}}}},{"type":"GO_ANALYSIS","ontology":"BP","pruning":"elim","data":{"content":[{"name":"retina homeostasis","pValue":0.05504},{"name":"negative regulation of interleukin-8 production","pValue":0.05504},{"name":"regulation of transepithelial transport","pValue":0.05504},{"name":"negative regulation of neuron projection development","pValue":0.1204},{"name":"platelet aggregation","pValue":0.121088}],"metadata":{"pageInfo":{"size":5,"totalElements":1376,"totalPages":276,"currentPage":0},"orderInfo":{"orderBy":"pValue","orderType":"ASC"}}}},{"type":"GO_ANALYSIS","ontology":"CC","pruning":"elim","data":{"content":[{"name":"extracellular exosome","pValue":3.91E-4},{"name":"collagen-containing extracellular matrix","pValue":0.00199333333333333},{"name":"MHC class I protein complex","pValue":0.00199333333333333},{"name":"calyx of Held","pValue":0.007475},{"name":"early endosome membrane","pValue":0.01058}],"metadata":{"pageInfo":{"size":5,"totalElements":230,"totalPages":46,"currentPage":0},"orderInfo":{"orderBy":"pValue","orderType":"ASC"}}}},{"type":"MIRNA_ANALYSIS","data":{"content":[{"name":"hsa-miR-590-5p","pValue":0.697674418604651},{"name":"hsa-miR-21-5p","pValue":0.697674418604651},{"name":"hsa-miR-493-3p","pValue":0.8},{"name":"hsa-miR-124-3p","pValue":0.823760662076483},{"name":"hsa-miR-1-3p","pValue":0.831369468447237}],"metadata":{"pageInfo":{"size":5,"totalElements":98,"totalPages":20,"currentPage":0},"orderInfo":{"orderBy":"pValue","orderType":"ASC"}}}},{"type":"DISEASE_ANALYSIS","data":{"content":[{"name":"Baraitser-Winter syndrome","pValue":1.17930272444566E-4},{"name":"Leprosy; Hansen disease","pValue":0.001155476605516},{"name":"Juvenile-onset dystonia","pValue":0.011090573012939},{"name":"Hypercatabolic hypoproteinemia","pValue":0.011090573012939},{"name":"Psoriasis","pValue":0.011090573012939}],"metadata":{"pageInfo":{"size":5,"totalElements":15,"totalPages":3,"currentPage":0},"orderInfo":{"orderBy":"pValue","orderType":"ASC"}}}},{"type":"UPSTREAM_ANALYSIS","upstreamHypothesis":"predicted as activated","data":{"content":[{"name":null,"pValue":2.8290211900879E-8},{"name":null,"pValue":2.57764450117171E-7},{"name":null,"pValue":8.95300349403675E-5},{"name":null,"pValue":3.51714705461398E-4},{"name":null,"pValue":9.85376895648426E-4}],"metadata":{"pageInfo":{"size":5,"totalElements":451,"totalPages":91,"currentPage":0},"orderInfo":{"orderBy":"pValue","orderType":"ASC"}}}},{"type":"UPSTREAM_ANALYSIS","upstreamHypothesis":"predicted as activated","data":{"content":[{"name":"AMH","pValue":0.00849514563106801},{"name":"CYP1B1","pValue":0.00849514563106801},{"name":"PARK7","pValue":0.00849514563106801},{"name":"ANXA2","pValue":0.0169283582441693},{"name":"EIF4B","pValue":0.0169283582441693}],"metadata":{"pageInfo":{"size":5,"totalElements":56,"totalPages":12,"currentPage":0},"orderInfo":{"orderBy":"pValue","orderType":"ASC"}}}}]}]