[{"id":80178,"condition1":"Condition","condition2":"Control","analyses":[{"type":"PATHWAY_ANALYSIS","data":{"content":[{"name":"Antigen processing and presentation","pValue":2.4709249390971E-8},{"name":"Coronavirus disease - COVID-19","pValue":2.03930032290496E-6},{"name":"Rheumatoid arthritis","pValue":3.45274612600303E-6},{"name":"Ribosome","pValue":7.75432886926211E-6},{"name":"Hematopoietic cell lineage","pValue":7.75432886926211E-6}],"metadata":{"pageInfo":{"size":5,"totalElements":218,"totalPages":44,"currentPage":0},"orderInfo":{"orderBy":"pValue","orderType":"ASC"}}}},{"type":"GO_ANALYSIS","ontology":"CC","pruning":"elim","data":{"content":[{"name":"cytosolic small ribosomal subunit","pValue":4.6075E-17},{"name":"extracellular exosome","pValue":1.25875E-10},{"name":"cytosolic large ribosomal subunit","pValue":1.425E-10},{"name":"focal adhesion","pValue":1.425E-7},{"name":"collagen-containing extracellular matrix","pValue":2.945E-6}],"metadata":{"pageInfo":{"size":5,"totalElements":475,"totalPages":95,"currentPage":0},"orderInfo":{"orderBy":"pValue","orderType":"ASC"}}}},{"type":"GO_ANALYSIS","ontology":"MF","pruning":"elim","data":{"content":[{"name":"structural constituent of ribosome","pValue":3.7848E-19},{"name":"MHC class II protein complex binding","pValue":0.0025564},{"name":"calcium-dependent protein binding","pValue":0.004648},{"name":"RAGE receptor binding","pValue":0.012118},{"name":"peptide antigen binding","pValue":0.0127488}],"metadata":{"pageInfo":{"size":5,"totalElements":664,"totalPages":133,"currentPage":0},"orderInfo":{"orderBy":"pValue","orderType":"ASC"}}}},{"type":"GO_ANALYSIS","ontology":"BP","pruning":"elim","data":{"content":[{"name":"cytoplasmic translation","pValue":7.0344E-22},{"name":"antigen processing and presentation of exogenous peptide antigen via MHC class II","pValue":2.5402E-7},{"name":"peptide antigen assembly with MHC class II protein complex","pValue":0.0089884},{"name":"positive regulation of interferon-gamma production","pValue":0.021494},{"name":"immune response","pValue":0.0461144}],"metadata":{"pageInfo":{"size":5,"totalElements":3908,"totalPages":782,"currentPage":0},"orderInfo":{"orderBy":"pValue","orderType":"ASC"}}}},{"type":"MIRNA_ANALYSIS","data":{"content":[{"name":"hsa-miR-200b-3p","pValue":0.056046935419352},{"name":"hsa-miR-200c-3p","pValue":0.056046935419352},{"name":"hsa-miR-429","pValue":0.056046935419352},{"name":"hsa-miR-520f-3p","pValue":0.0612747406851009},{"name":"hsa-miR-182-5p","pValue":0.0671401522383513}],"metadata":{"pageInfo":{"size":5,"totalElements":260,"totalPages":52,"currentPage":0},"orderInfo":{"orderBy":"pValue","orderType":"ASC"}}}},{"type":"DISEASE_ANALYSIS","data":{"content":[{"name":"Diamond-Blackfan anemia","pValue":9.02709564624186E-10},{"name":"Acute myeloid leukemia","pValue":5.57945601885402E-4},{"name":"T-B+Severe combined immunodeficiency","pValue":0.00243862694799025},{"name":"Systemic sclerosis; Systemic scleroderma","pValue":0.00410723041825446},{"name":"Alternative complement pathway component defects","pValue":0.0068069363430019}],"metadata":{"pageInfo":{"size":5,"totalElements":87,"totalPages":18,"currentPage":0},"orderInfo":{"orderBy":"pValue","orderType":"ASC"}}}},{"type":"UPSTREAM_ANALYSIS","upstreamHypothesis":"predicted as activated","data":{"content":[{"name":null,"pValue":4.62578241775831E-10},{"name":null,"pValue":2.41563752478728E-9},{"name":null,"pValue":2.66857571962827E-7},{"name":null,"pValue":6.41997239692183E-5},{"name":null,"pValue":9.72854400317925E-5}],"metadata":{"pageInfo":{"size":5,"totalElements":1433,"totalPages":287,"currentPage":0},"orderInfo":{"orderBy":"pValue","orderType":"ASC"}}}},{"type":"UPSTREAM_ANALYSIS","upstreamHypothesis":"predicted as activated","data":{"content":[{"name":"CSNK1D","pValue":3.45526659267582E-17},{"name":"CSNK1E","pValue":3.45526659267582E-17},{"name":"BUD23","pValue":3.45526659267582E-17},{"name":"DIS3","pValue":1.52966475316469E-16},{"name":"EXOSC10","pValue":2.96853982982305E-16}],"metadata":{"pageInfo":{"size":5,"totalElements":813,"totalPages":163,"currentPage":0},"orderInfo":{"orderBy":"pValue","orderType":"ASC"}}}}]}]