[{"id":80361,"condition1":"Condition","condition2":"Control","analyses":[{"type":"PATHWAY_ANALYSIS","data":{"content":[{"name":"Viral myocarditis","pValue":0.0017685140110456},{"name":"Epstein-Barr virus infection","pValue":0.00232624855804361},{"name":"Gastric acid secretion","pValue":0.0025051957283322},{"name":"Dilated cardiomyopathy","pValue":0.00555219671141531},{"name":"Cytokine-cytokine receptor interaction","pValue":0.0073088614041232}],"metadata":{"pageInfo":{"size":5,"totalElements":60,"totalPages":12,"currentPage":0},"orderInfo":{"orderBy":"pValue","orderType":"ASC"}}}},{"type":"GO_ANALYSIS","ontology":"CC","pruning":"elim","data":{"content":[{"name":"extracellular exosome","pValue":0.00858},{"name":"calyx of Held","pValue":0.00858},{"name":"collagen-containing extracellular matrix","pValue":0.01012},{"name":"blood microparticle","pValue":0.01012},{"name":"dense body","pValue":0.01012}],"metadata":{"pageInfo":{"size":5,"totalElements":220,"totalPages":44,"currentPage":0},"orderInfo":{"orderBy":"pValue","orderType":"ASC"}}}},{"type":"GO_ANALYSIS","ontology":"MF","pruning":"elim","data":{"content":[{"name":"calcium-dependent protein binding","pValue":0.002952},{"name":"structural constituent of postsynaptic actin cytoskeleton","pValue":0.005822},{"name":"identical protein binding","pValue":0.00656},{"name":"cadherin binding involved in cell-cell adhesion","pValue":0.0287},{"name":"calcium ion binding","pValue":0.049856}],"metadata":{"pageInfo":{"size":5,"totalElements":164,"totalPages":33,"currentPage":0},"orderInfo":{"orderBy":"pValue","orderType":"ASC"}}}},{"type":"GO_ANALYSIS","ontology":"BP","pruning":"elim","data":{"content":[{"name":"retina homeostasis","pValue":0.041613},{"name":"regulation of transepithelial transport","pValue":0.0472875},{"name":"negative regulation of neuron projection development","pValue":0.0662025},{"name":"platelet aggregation","pValue":0.0662025},{"name":"positive regulation of T cell cytokine production","pValue":0.094575}],"metadata":{"pageInfo":{"size":5,"totalElements":1261,"totalPages":253,"currentPage":0},"orderInfo":{"orderBy":"pValue","orderType":"ASC"}}}},{"type":"MIRNA_ANALYSIS","data":{"content":[{"name":"hsa-miR-590-5p","pValue":0.697674418604651},{"name":"hsa-miR-21-5p","pValue":0.697674418604651},{"name":"hsa-miR-493-3p","pValue":0.8},{"name":"hsa-miR-205-5p","pValue":0.856044723969252},{"name":"hsa-miR-124-3p","pValue":0.864948695180307}],"metadata":{"pageInfo":{"size":5,"totalElements":86,"totalPages":18,"currentPage":0},"orderInfo":{"orderBy":"pValue","orderType":"ASC"}}}},{"type":"DISEASE_ANALYSIS","data":{"content":[{"name":"Baraitser-Winter syndrome","pValue":7.30654948841335E-5},{"name":"Juvenile-onset dystonia","pValue":0.00878003696857665},{"name":"Hypercatabolic hypoproteinemia","pValue":0.00878003696857665},{"name":"Bilateral sudden sensorineural hearing loss","pValue":0.00878003696857665},{"name":"IFN-gamma/IL-12 axis; Medelian susceptibility to mycobacterial disease (MSMD)","pValue":0.0174870084422692}],"metadata":{"pageInfo":{"size":5,"totalElements":14,"totalPages":3,"currentPage":0},"orderInfo":{"orderBy":"pValue","orderType":"ASC"}}}},{"type":"UPSTREAM_ANALYSIS","upstreamHypothesis":"predicted as activated","data":{"content":[{"name":null,"pValue":5.6894345993457E-6},{"name":null,"pValue":2.1540565544754E-5},{"name":null,"pValue":5.0626318669493E-5},{"name":null,"pValue":2.18248620371567E-4},{"name":null,"pValue":3.85732898532139E-4}],"metadata":{"pageInfo":{"size":5,"totalElements":434,"totalPages":87,"currentPage":0},"orderInfo":{"orderBy":"pValue","orderType":"ASC"}}}},{"type":"UPSTREAM_ANALYSIS","upstreamHypothesis":"predicted as activated","data":{"content":[{"name":"AMH","pValue":0.00728155339805814},{"name":"CYP1B1","pValue":0.00728155339805814},{"name":"PARK7","pValue":0.00728155339805814},{"name":"ANXA2","pValue":0.0145188689261402},{"name":"EIF4B","pValue":0.0145188689261402}],"metadata":{"pageInfo":{"size":5,"totalElements":50,"totalPages":10,"currentPage":0},"orderInfo":{"orderBy":"pValue","orderType":"ASC"}}}}]}]