[{"id":80177,"condition1":"Condition","condition2":"Control","analyses":[{"type":"PATHWAY_ANALYSIS","data":{"content":[{"name":"Viral myocarditis","pValue":1.61404918278599E-4},{"name":"Tight junction","pValue":5.29196675559609E-4},{"name":"Regulation of actin cytoskeleton","pValue":6.24432374447519E-4},{"name":"Epstein-Barr virus infection","pValue":6.3526990651161E-4},{"name":"Oxytocin signaling pathway","pValue":7.08312598069005E-4}],"metadata":{"pageInfo":{"size":5,"totalElements":62,"totalPages":13,"currentPage":0},"orderInfo":{"orderBy":"pValue","orderType":"ASC"}}}},{"type":"GO_ANALYSIS","ontology":"MF","pruning":"elim","data":{"content":[{"name":"calcium-dependent protein binding","pValue":0.008722},{"name":"structural constituent of postsynaptic actin cytoskeleton","pValue":0.01068},{"name":"calcium ion binding","pValue":0.0225466666666667},{"name":"cadherin binding involved in cell-cell adhesion","pValue":0.05073},{"name":"identical protein binding","pValue":0.05073}],"metadata":{"pageInfo":{"size":5,"totalElements":178,"totalPages":36,"currentPage":0},"orderInfo":{"orderBy":"pValue","orderType":"ASC"}}}},{"type":"GO_ANALYSIS","ontology":"CC","pruning":"elim","data":{"content":[{"name":"extracellular exosome","pValue":0.002748},{"name":"MHC class I protein complex","pValue":0.002977},{"name":"calyx of Held","pValue":0.0074425},{"name":"dense body","pValue":0.0074425},{"name":"early endosome membrane","pValue":0.010534}],"metadata":{"pageInfo":{"size":5,"totalElements":229,"totalPages":46,"currentPage":0},"orderInfo":{"orderBy":"pValue","orderType":"ASC"}}}},{"type":"GO_ANALYSIS","ontology":"BP","pruning":"elim","data":{"content":[{"name":"retina homeostasis","pValue":0.05888},{"name":"negative regulation of interleukin-8 production","pValue":0.05888},{"name":"regulation of transepithelial transport","pValue":0.05888},{"name":"negative regulation of neuron projection development","pValue":0.1288},{"name":"platelet aggregation","pValue":0.129536}],"metadata":{"pageInfo":{"size":5,"totalElements":1472,"totalPages":295,"currentPage":0},"orderInfo":{"orderBy":"pValue","orderType":"ASC"}}}},{"type":"MIRNA_ANALYSIS","data":{"content":[{"name":"hsa-miR-32-5p","pValue":1.0},{"name":"hsa-miR-22-3p","pValue":1.0},{"name":"hsa-miR-181c-5p","pValue":1.0},{"name":"hsa-miR-199b-5p","pValue":1.0},{"name":"hsa-miR-485-3p","pValue":1.0}],"metadata":{"pageInfo":{"size":5,"totalElements":98,"totalPages":20,"currentPage":0},"orderInfo":{"orderBy":"pValue","orderType":"ASC"}}}},{"type":"DISEASE_ANALYSIS","data":{"content":[{"name":"Baraitser-Winter syndrome","pValue":1.17603897290892E-4},{"name":"Leprosy; Hansen disease","pValue":0.00115231147712902},{"name":"Juvenile-onset dystonia","pValue":0.0110752191970467},{"name":"Hypercatabolic hypoproteinemia","pValue":0.0110752191970467},{"name":"Psoriasis","pValue":0.0110752191970467}],"metadata":{"pageInfo":{"size":5,"totalElements":15,"totalPages":3,"currentPage":0},"orderInfo":{"orderBy":"pValue","orderType":"ASC"}}}},{"type":"UPSTREAM_ANALYSIS","upstreamHypothesis":"predicted as activated","data":{"content":[{"name":null,"pValue":1.28022290848188E-6},{"name":null,"pValue":2.10967492960339E-5},{"name":null,"pValue":2.69147453173649E-5},{"name":null,"pValue":3.30716646044017E-5},{"name":null,"pValue":4.44626735327686E-5}],"metadata":{"pageInfo":{"size":5,"totalElements":457,"totalPages":92,"currentPage":0},"orderInfo":{"orderBy":"pValue","orderType":"ASC"}}}},{"type":"UPSTREAM_ANALYSIS","upstreamHypothesis":"predicted as activated","data":{"content":[{"name":"IL1B","pValue":0.00461173420501823},{"name":"INS","pValue":0.00783381455289126},{"name":"IRF9","pValue":0.008804191941028},{"name":"STAT2","pValue":0.00984312860115266},{"name":"LASP1","pValue":0.018181818181818}],"metadata":{"pageInfo":{"size":5,"totalElements":58,"totalPages":12,"currentPage":0},"orderInfo":{"orderBy":"pValue","orderType":"ASC"}}}}]}]